...................
----------------------------------------------------------------------
Ran 19 tests in 0.012s

OK
Name             Stmts   Miss Branch BrPart  Cover   Missing
------------------------------------------------------------
Collatz.py          35      0     10      0   100%
TestCollatz.py      82      0      0      0   100%
------------------------------------------------------------
TOTAL              117      0     10      0   100%
