1 10 20
100 200 125
201 210 89
900 1000 174
500 2000 182
350 20 144
450 15 144
10000 2 262
25 550 144
39 9000 262
200 399 144
9999 60 262
888 6999 262
465 9763 262
3 3333 217
1 11 20
96 8765 262
9762 74 262
67 1937 182
864 2845 209
12 86 116
385 801 171
74 186 125
3027 186 217
4958 3948 215
639 18 144
397 1926 182
47 198 125
1937 17 182
7937 195 262
2 9 20
1947 29 182
574 9 144
4937 2000 238
82 1111 179
937 753 179
836 6020 238
7492 8402 252
100 100 26
100 101 26
601312 995428 525
177150 786304 509
641526 959224 525
747526 847067 525
277354 383114 441
16999 116397 354
231727 746024 509
208142 964963 525
810929 885311 525
424971 817060 509
394634 995887 525
330334 695444 509
191479 299568 443
495242 759847 509
382402 427538 449
82925 790459 509
177642 845448 525
186767 929891 525
722169 888187 525
364398 454646 449
138713 220005 386
664943 882933 525
160350 455472 449
232068 933950 525
769648 967076 525
263847 958479 525
376756 872582 525
19861 581133 470
211266 795366 509
105825 549150 470
356425 513403 470
27659 398192 443
38117 801316 509
702714 812668 504
346148 947974 525
81474 397424 443
535369 540009 377
20250 695823 509
101166 904903 525
231096 241639 381
115503 920360 525
23474 531468 470
140268 154544 375
551333 903238 525
293229 358899 441
39103 565432 470
67523 790224 509
209729 926399 525
681888 708867 504
273665 554711 470
615879 697749 509
498929 553100 470
160382 496052 449
375491 782316 509
673130 932256 525
490725 904567 525
214974 402636 443
449505 947485 525
275139 304240 389
114598 208942 383
154143 318379 443
192541 271301 443
440952 874705 525
261985 733990 509
301484 894650 525
240289 428792 449
33846 968864 525
143278 994116 525
210359 712419 509
92724 354752 443
103837 437696 449
630920 726724 504
17448 648478 509
664997 993101 525
588036 995713 525
787750 804084 468
245485 735681 509
450192 882529 525
440628 798087 509
312003 998940 525
152495 418687 449
381596 766756 509
764225 916287 525
328408 894463 525
396922 905730 525
419908 562559 470
60725 204964 383
417976 969983 525
851933 930654 476
419527 451128 418
211356 967638 525
167557 499825 449
301614 446055 449
164891 238335 443
379986 385111 379
327065 495520 449
780238 950778 525
792553 940317 525
366970 832760 509
583701 585057 434
299544 387800 441
